1 22195U 92070B   19181.91237733 -.00000009 +00000-0 +00000-0 0  9992
2 22195 052.6655 073.9710 0138480 155.0264 097.0545 06.47293735630986
1 22195U 92070B   19182.86985374 -.00000009  00000-0  00000+0 0  9997
2 22195  52.6656  73.3660 0138475 155.4440 168.2216  6.47293733631041
1 22195U 92070B   19183.46722896 -.00000009 +00000-0 +00000-0 0  9993
2 22195 052.6657 072.9885 0138469 155.7052 120.2592 06.47293729631085
1 22195U 92070B   19184.50864837 -.00000009 +00000-0 +00000-0 0  9991
2 22195 052.6659 072.3305 0138460 156.1601 027.0344 06.47293722631154
1 22195U 92070B   19185.11009716 -.00000009  00000-0  00000+0 0  9995
2 22195  52.6659  71.9504 0138456 156.4224 348.5653  6.47293717631180
1 22195U 92070B   19185.43985649 -.00000009 +00000-0 +00000-0 0  9999
2 22195 052.6660 071.7420 0138453 156.5665 036.9893 06.47293714631219
1 22195U 92070B   19186.33930843 -.00000009 +00000-0 +00000-0 0  9995
2 22195 052.6661 071.1737 0138446 156.9585 332.9446 06.47293708631274
