1 22195U 92070B   19062.83440559 -.00000009 +00000-0 +00000-0 0  9993
2 22195 052.6480 149.2396 0138834 103.2010 174.3432 06.47294002623272
1 22195U 92070B   19063.18189293 -.00000009  00000-0  00000+0 0  9996
2 22195  52.6480 149.0199 0138842 103.3519 264.0797  6.47294010623297
1 22195U 92070B   19063.81926778 -.00000009 +00000-0 +00000-0 0  9994
2 22195 052.6479 148.6171 0138841 103.6286 309.3300 06.47294016623348
1 22195U 92070B   19064.57039497 -.00000009 +00000-0 +00000-0 0  9991
2 22195 052.6479 148.1424 0138841 103.9544 259.6532 06.47294020623398
1 22195U 92070B   19065.51197043 -.00000009  00000-0  00000+0 0  9997
2 22195  52.6478 147.5473 0138838 104.3623 293.7713  6.47294017623445
1 22195U 92070B   19065.84253760 -.00000009 +00000-0 +00000-0 0  9993
2 22195 052.6478 147.3384 0138838 104.5056 344.0796 06.47294016623479
1 22195U 92070B   19066.59693437 -.00000009 +00000-0 +00000-0 0  9995
2 22195 052.6478 146.8616 0138839 104.8330 302.0217 06.47294012623524
1 22195U 92070B   19067.56561462 -.00000009  00000-0  00000+0 0  9994
2 22195  52.6478 146.2494 0138837 105.2531  39.3007  6.47294005623572
1 22195U 92070B   19067.62579366 -.00000009 +00000-0 +00000-0 0  9994
2 22195 052.6478 146.2114 0138836 105.2791 179.5337 06.47294004623581
