1 22195U 92070B   19356.55558182 -.00000009  00000-0  00000+0 0  9999
2 22195  52.6694 323.6106 0138219 231.4353 260.4561  6.47293675642284
1 22195U 92070B   19356.91084104 -.00000009 +00000-0 +00000-0 0  9998
2 22195 052.6694 323.3861 0138218 231.5900 008.3019 06.47293675642318
1 22195U 92070B   19357.63989791 -.00000009 +00000-0 +00000-0 0  9994
2 22195 052.6694 322.9254 0138218 231.9074 267.1927 06.47293676642364
1 22195U 92070B   19358.60149536 -.00000009  00000-0  00000+0 0  9996
2 22195  52.6693 322.3178 0138217 232.3265 347.9629  6.47293680642415
1 22195U 92070B   19359.68018769 -.00000009 +00000-0 +00000-0 0  9999
2 22195 052.6693 321.6361 0138215 232.7968 341.5943 06.47293687642497
1 22195U 92070B   19360.57913106 -.00000009 +00000-0 +00000-0 0  9998
2 22195 052.6692 321.0681 0138214 233.1884 276.3645 06.47293692642553
1 22195U 92070B   19361.17742925 -.00000009  00000-0  00000+0 0  9993
2 22195  52.6692 320.6900 0138214 233.4490 230.5538  6.47293696642588
1 22195U 92070B   19361.92774594 -.00000009 +00000-0 +00000-0 0  9994
2 22195 052.6691 320.2158 0138213 233.7764 178.9849 06.47293698642643
