1  8820U 76039A   20131.43699105  .00000011  00000-0  00000+0 0  9998
2  8820 109.8230 135.9308 0044286  58.5003 228.0009  6.38664664771215
1  8820U 76039A   20131.57263503 +.00000012 +00000-0 +00000-0 0  9994
2  8820 109.8230 135.9773 0044287 058.4695 179.8743 06.38664665771127
1  8820U 76039A   20131.69887618 +.00000012 +00000-0 +00000-0 0  9996
2  8820 109.8230 136.0205 0044288 058.4423 110.1272 06.38664665771135
1  8820U 76039A   20132.51751420 +.00000014 +00000-0 +00000-0 0  9991
2  8820 109.8229 136.3008 0044289 058.2670 192.3339 06.38664670771187
1  8820U 76039A   20132.78724435 +.00000015 +00000-0 +00000-0 0  9997
2  8820 109.8228 136.3931 0044290 058.2088 092.4959 06.38664671771208
1  8820U 76039A   20133.19122426 +.00000016 +00000-0 +00000-0 0  9996
2  8820 109.8228 136.5314 0044291 058.1209 301.3250 06.38664674771221
1  8820U 76039A   20133.58219962  .00000018  00000-0  00000+0 0  9992
2  8820 109.8227 136.6653 0044291  58.0373 120.2526  6.38664678771350
1  8820U 76039A   20134.54508588 +.00000022 +00000-0 +00000-0 0  9990
2  8820 109.8225 136.9950 0044292 057.8325 174.1124 06.38664683771310
1  8820U 76039A   20134.67785337 +.00000022 +00000-0 +00000-0 0  9993
2  8820 109.8225 137.0404 0044293 057.8013 119.3732 06.38664684771329
1  8820U 76039A   20135.22867469 +.00000024 +00000-0 +00000-0 0  9994
2  8820 109.8224 137.2290 0044294 057.6831 305.8179 06.38664688771365
1  8820U 76039A   20136.17189847  .00000026  00000-0  00000+0 0  9997
2  8820 109.8223 137.5520 0044296  57.4801 314.4723  6.38664693771525
1  8820U 76039A   20136.90762884 +.00000027 +00000-0 +00000-0 0  9998
2  8820 109.8222 137.8039 0044297 057.3223 206.0585 06.38664697771469
