1  8820U 76039A   20068.89689600 +.00000033 +00000-0 +00000-0 0  9991
2  8820 109.8362 114.5137 0044189 071.9982 076.1338 06.38664760767120
1  8820U 76039A   20069.30538001 +.00000032 +00000-0 +00000-0 0  9995
2  8820 109.8361 114.6536 0044190 071.9094 295.3190 06.38664758767150
1  8820U 76039A   20069.84412140  .00000029  00000-0  00000+0 0  9994
2  8820 109.8360 114.8382 0044190  71.7933  93.9906  6.38664756767289
1  8820U 76039A   20069.90560601 +.00000029 +00000-0 +00000-0 0  9998
2  8820 109.8360 114.8592 0044190 071.7798 235.3559 06.38664756767186
1  8820U 76039A   20070.07962021 +.00000028 +00000-0 +00000-0 0  9999
2  8820 109.8359 114.9188 0044190 071.7419 275.4489 06.38664756767194
1  8820U 76039A   20070.66025490 +.00000026 +00000-0 +00000-0 0  9992
2  8820 109.8358 115.1177 0044192 071.6160 170.4420 06.38664754767230
1  8820U 76039A   20073.63296170 +.00000013 +00000-0 +00000-0 0  9993
2  8820 109.8350 116.1361 0044202 070.9689 165.2810 06.38664749767428
1  8820U 76039A   20073.90793110 +.00000012 +00000-0 +00000-0 0  9998
2  8820 109.8349 116.2302 0044202 070.9091 077.4898 06.38664748767440
